%YAML 1.1
%TAG !u! tag:unity3d.com,2011:
--- !u!1001 &3839549158724447166
PrefabInstance:
  m_ObjectHideFlags: 0
  serializedVersion: 2
  m_Modification:
    m_TransformParent: {fileID: 0}
    m_Modifications:
    - target: {fileID: 554674651505899329, guid: 6964cf827ed02bd42ad35a5734a13d60,
        type: 3}
      propertyPath: m_Materials.Array.data[0]
      value: 
      objectReference: {fileID: 2100000, guid: 96dc9ef6d093afe46b7b257368357633, type: 2}
    - target: {fileID: 3458799552108349344, guid: 6964cf827ed02bd42ad35a5734a13d60,
        type: 3}
      propertyPath: m_AnchorMin.y
      value: 0
      objectReference: {fileID: 0}
    - target: {fileID: 3458799552108349344, guid: 6964cf827ed02bd42ad35a5734a13d60,
        type: 3}
      propertyPath: m_AnchorMax.y
      value: 0
      objectReference: {fileID: 0}
    - target: {fileID: 3458799552108349344, guid: 6964cf827ed02bd42ad35a5734a13d60,
        type: 3}
      propertyPath: m_AnchoredPosition.x
      value: 0
      objectReference: {fileID: 0}
    - target: {fileID: 3458799552108349344, guid: 6964cf827ed02bd42ad35a5734a13d60,
        type: 3}
      propertyPath: m_AnchoredPosition.y
      value: 0
      objectReference: {fileID: 0}
    - target: {fileID: 4340771561773162992, guid: 6964cf827ed02bd42ad35a5734a13d60,
        type: 3}
      propertyPath: m_Name
      value: PlayerMan
      objectReference: {fileID: 0}
    - target: {fileID: 4340771561773163004, guid: 6964cf827ed02bd42ad35a5734a13d60,
        type: 3}
      propertyPath: m_LocalPosition.x
      value: 0
      objectReference: {fileID: 0}
    - target: {fileID: 4340771561773163004, guid: 6964cf827ed02bd42ad35a5734a13d60,
        type: 3}
      propertyPath: m_LocalPosition.y
      value: 0.4
      objectReference: {fileID: 0}
    - target: {fileID: 4340771561773163004, guid: 6964cf827ed02bd42ad35a5734a13d60,
        type: 3}
      propertyPath: m_LocalPosition.z
      value: 0
      objectReference: {fileID: 0}
    - target: {fileID: 4340771561773163004, guid: 6964cf827ed02bd42ad35a5734a13d60,
        type: 3}
      propertyPath: m_LocalRotation.x
      value: 0
      objectReference: {fileID: 0}
    - target: {fileID: 4340771561773163004, guid: 6964cf827ed02bd42ad35a5734a13d60,
        type: 3}
      propertyPath: m_LocalRotation.y
      value: 0
      objectReference: {fileID: 0}
    - target: {fileID: 4340771561773163004, guid: 6964cf827ed02bd42ad35a5734a13d60,
        type: 3}
      propertyPath: m_LocalRotation.z
      value: 0
      objectReference: {fileID: 0}
    - target: {fileID: 4340771561773163004, guid: 6964cf827ed02bd42ad35a5734a13d60,
        type: 3}
      propertyPath: m_LocalRotation.w
      value: 1
      objectReference: {fileID: 0}
    - target: {fileID: 4340771561773163004, guid: 6964cf827ed02bd42ad35a5734a13d60,
        type: 3}
      propertyPath: m_RootOrder
      value: 0
      objectReference: {fileID: 0}
    - target: {fileID: 4340771561773163004, guid: 6964cf827ed02bd42ad35a5734a13d60,
        type: 3}
      propertyPath: m_LocalEulerAnglesHint.x
      value: 0
      objectReference: {fileID: 0}
    - target: {fileID: 4340771561773163004, guid: 6964cf827ed02bd42ad35a5734a13d60,
        type: 3}
      propertyPath: m_LocalEulerAnglesHint.y
      value: 0
      objectReference: {fileID: 0}
    - target: {fileID: 4340771561773163004, guid: 6964cf827ed02bd42ad35a5734a13d60,
        type: 3}
      propertyPath: m_LocalEulerAnglesHint.z
      value: 0
      objectReference: {fileID: 0}
    - target: {fileID: 4340771561773163006, guid: 6964cf827ed02bd42ad35a5734a13d60,
        type: 3}
      propertyPath: m_Materials.Array.data[0]
      value: 
      objectReference: {fileID: 2100000, guid: 96dc9ef6d093afe46b7b257368357633, type: 2}
    - target: {fileID: 5031724888759413290, guid: 6964cf827ed02bd42ad35a5734a13d60,
        type: 3}
      propertyPath: m_AnchorMin.y
      value: 0
      objectReference: {fileID: 0}
    - target: {fileID: 5031724888759413290, guid: 6964cf827ed02bd42ad35a5734a13d60,
        type: 3}
      propertyPath: m_AnchorMax.y
      value: 0
      objectReference: {fileID: 0}
    - target: {fileID: 5031724888759413290, guid: 6964cf827ed02bd42ad35a5734a13d60,
        type: 3}
      propertyPath: m_AnchoredPosition.x
      value: 0
      objectReference: {fileID: 0}
    - target: {fileID: 5031724888759413290, guid: 6964cf827ed02bd42ad35a5734a13d60,
        type: 3}
      propertyPath: m_AnchoredPosition.y
      value: 0
      objectReference: {fileID: 0}
    - target: {fileID: 5081521797243404508, guid: 6964cf827ed02bd42ad35a5734a13d60,
        type: 3}
      propertyPath: projectileColor.r
      value: 0.36078432
      objectReference: {fileID: 0}
    - target: {fileID: 5081521797243404508, guid: 6964cf827ed02bd42ad35a5734a13d60,
        type: 3}
      propertyPath: projectileColor.g
      value: 0.47058824
      objectReference: {fileID: 0}
    - target: {fileID: 5081521797243404508, guid: 6964cf827ed02bd42ad35a5734a13d60,
        type: 3}
      propertyPath: projectileColor.b
      value: 0.6901961
      objectReference: {fileID: 0}
    m_RemovedComponents: []
  m_SourcePrefab: {fileID: 100100000, guid: 6964cf827ed02bd42ad35a5734a13d60, type: 3}
